…
Como unir uma variável em ID com os dados do mapa:

``` r
tribble(
    ~estado, ~area,
    3,        1570.7,
    5,        1247.6,
    25,       903.3,
    17,       587.5,
    16,       564.6
) |> 
    right_join(mapa_estado, by = c("estado" = "id")) 
#> # A tibble: 51,746 × 5
#>    estado  area  long   lat group
#>     <dbl> <dbl> <dbl> <dbl> <fct>
#>  1      3 1571. -58.1 -7.34 3.1  
#>  2      3 1571. -58.1 -7.36 3.1  
#>  3      3 1571. -58.1 -7.37 3.1  
#>  4      3 1571. -58.2 -7.38 3.1  
#>  5      3 1571. -58.2 -7.39 3.1  
#>  6      3 1571. -58.2 -7.43 3.1  
#>  7      3 1571. -58.2 -7.46 3.1  
#>  8      3 1571. -58.2 -7.47 3.1  
#>  9      3 1571. -58.2 -7.48 3.1  
#> 10      3 1571. -58.2 -7.49 3.1  
#> # … with 51,736 more rows
```
